{
  "project_info": {
    "project_number": "309040964064",
    "firebase_url": "https://tmbooking-admin.firebaseio.com",
    "project_id": "tmbooking-admin",
    "storage_bucket": "tmbooking-admin.appspot.com"
  },
  "client": [
    {
      "client_info": {
        "mobilesdk_app_id": "1:309040964064:android:820606be5a0c4fce",
        "android_client_info": {
          "package_name": "com.tmbooking.admin"
        }
      },
      "oauth_client": [
        {
          "client_id": "309040964064-i7cs3cjfkjgi1i78brt8i2t7m8h1oat9.apps.googleusercontent.com",
          "client_type": 3
        }
      ],
      "api_key": [
        {
          "current_key": "AIzaSyBpZZYVXgw4cyoEELgbpIqhzU4Bf74zGew"
        }
      ],
      "services": {
        "analytics_service": {
          "status": 1
        },
        "appinvite_service": {
          "status": 1,
          "other_platform_oauth_client": []
        },
        "ads_service": {
          "status": 2
        }
      }
    }
  ],
  "configuration_version": "1"
}